Introduction to R (Lab 02) Exercises, Completed
…
A general rule about knitting R Markdown: do it early and often. Much better to find errors right away, rather than figuring them out when you thought you were done.

If you have any questions at this point, take some time to make sense of everything!

Importing data

You can import data from the File menu in RStudio. However, most of the time you’ll want to do so using code.

When you ran the line that downloaded this file, it also downloaded a CSV (comma-separated value) file with data about penguins. You can read more about that data here. (That will be a link when you knit this—either knit it and click, or copy and paste the URL into your web browser if you’d like to read it.) The data is from Horst, Hill, & Gorman (2020).

You can use the function read_csv() to, well, read a CSV file. Try running the following code. (How? Scroll back up and read the section “How to run code in these documents”.)

read_csv("penguins.csv")

# A tibble: 344 x 8
   species island bill_length_mm bill_depth_mm flipper_length_…
   <chr>   <chr>           <dbl>         <dbl>            <dbl>
 1 Adelie  Torge…           39.1          18.7              181
 2 Adelie  Torge…           39.5          17.4              186
 3 Adelie  Torge…           40.3          18                195
 4 Adelie  Torge…           NA            NA                 NA
 5 Adelie  Torge…           36.7          19.3              193
 6 Adelie  Torge…           39.3          20.6              190
 7 Adelie  Torge…           38.9          17.8              181
 8 Adelie  Torge…           39.2          19.6              195
 9 Adelie  Torge…           34.1          18.1              193
10 Adelie  Torge…           42            20.2              190
# … with 334 more rows, and 3 more variables: body_mass_g <dbl>,
#   sex <chr>, year <dbl>
…
What class is this variable penguins? In the code chunk below, use the class() function to find out! (It should give you more than one answer, including that it’s a “tbl” [table] and a data.frame)

class(penguins)

[1] "spec_tbl_df" "tbl_df"      "tbl"         "data.frame" 

Using both the select() function from the dplyr package and the $ operator (which is the default in R), print the column species from penguins. (Do one on the first line and the other on the second.)

Remember that you should use the chain %>% with select(). Feel free to refer back to your notes or the tutorial!

# with select()
penguins %>% select(species)

# A tibble: 344 x 1
   species
   <chr>  
 1 Adelie 
 2 Adelie 
 3 Adelie 
 4 Adelie 
 5 Adelie 
 6 Adelie 
 7 Adelie 
 8 Adelie 
 9 Adelie 
10 Adelie 
# … with 334 more rows

# or:
select(penguins, species)

# A tibble: 344 x 1
   species
   <chr>  
 1 Adelie 
 2 Adelie 
 3 Adelie 
 4 Adelie 
 5 Adelie 
 6 Adelie 
 7 Adelie 
 8 Adelie 
 9 Adelie 
10 Adelie 
# … with 334 more rows
…
In words, describe what is going on in #4. (Just type it in the space below.)

We take the data frame “penguins” and select the column “species” from it, and then we slice the 20th row – so we get the value of “Adelie” (which is the 20th value in that row.)

Try knitting the document. Does everything work? If there’s an error, is it one you can address? Try to fix it.

You can also use square brackets [like these] after the name of a variable to subset part of that variable, as you learned in the tutorial. With a data frame, if you put any number inside the brackets, it will select the column that corresponds to that number. Use this method to select the 4th column of penguins in the code chunk below.

Technically, there’s a comma that comes before the 4, inside the brackets. (Nothing comes before the comma.) Try that out—you should get the same result.

penguins[4]

# A tibble: 344 x 1
   bill_depth_mm
           <dbl>
 1          18.7
 2          17.4
 3          18  
 4          NA  
 5          19.3
 6          20.6
 7          17.8
 8          19.6
 9          18.1
10          20.2
# … with 334 more rows

penguins[,4] # same thing

# A tibble: 344 x 1
   bill_depth_mm
           <dbl>
 1          18.7
 2          17.4
 3          18  
 4          NA  
 5          19.3
 6          20.6
 7          17.8
 8          19.6
 9          18.1
10          20.2
# … with 334 more rows
…
What you’ll get is a series of TRUE and FALSE values, as R tests every one of the 344 rows of the species column against the name “Chinstrap”. Looks like the Chinstrap penguins are the last of the set.

The double equal sign can be read as “is this equal?” or a test for equivalence. If we put that inside of a filter() function, we’ll get only the rows where it’s true.

So: filter() works like select() or slice(). Name the variable, use the %>% chain, and then use the filter() function with this code inside the parentheses: species == "Chinstrap". Give that a try below. (Remember not to include the tick marks ` themselves in the code you write.)

penguins %>%
  filter(species == "Chinstrap")

# A tibble: 68 x 8
   species island bill_length_mm bill_depth_mm flipper_length_…
   <chr>   <chr>           <dbl>         <dbl>            <dbl>
 1 Chinst… Dream            46.5          17.9              192
 2 Chinst… Dream            50            19.5              196
 3 Chinst… Dream            51.3          19.2              193
 4 Chinst… Dream            45.4          18.7              188
 5 Chinst… Dream            52.7          19.8              197
 6 Chinst… Dream            45.2          17.8              198
 7 Chinst… Dream            46.1          18.2              178
 8 Chinst… Dream            51.3          18.2              197
 9 Chinst… Dream            46            18.9              195
10 Chinst… Dream            51.3          19.9              198
# … with 58 more rows, and 3 more variables: body_mass_g <dbl>,
#   sex <chr>, year <dbl>

You should get 68 rows—all of which are of the Chinstrap species.

You’ll note that I didn’t need to specify the name of the data frame again inside of the filter() function. In fact, you should not name the data frame again.

Last two pieces: use filter() again to only select rows from penguins where the bill length in millimeters (column name: bill_length_mm) is more than 40.

penguins %>%
  filter(bill_length_mm > 40)

# A tibble: 242 x 8
   species island bill_length_mm bill_depth_mm flipper_length_…
   <chr>   <chr>           <dbl>         <dbl>            <dbl>
 1 Adelie  Torge…           40.3          18                195
 2 Adelie  Torge…           42            20.2              190
 3 Adelie  Torge…           41.1          17.6              182
 4 Adelie  Torge…           42.5          20.7              197
 5 Adelie  Torge…           46            21.5              194
 6 Adelie  Biscoe           40.6          18.6              183
 7 Adelie  Biscoe           40.5          17.9              187
 8 Adelie  Biscoe           40.5          18.9              180
 9 Adelie  Dream            40.9          18.9              184
10 Adelie  Dream            42.2          18.5              180
# … with 232 more rows, and 3 more variables: body_mass_g <dbl>,
#   sex <chr>, year <dbl>

Then, copy that code below—and after the 40, add a comma, and a second thing to filter by. You want to filter() only rows from penguins where (again) the bill length in millimeters (column name: bill_length_mm) is more than 40, and where the species is Adelie.

penguins %>%
  filter(bill_length_mm > 40, 
         species == "Adelie")

# A tibble: 51 x 8
   species island bill_length_mm bill_depth_mm flipper_length_…
   <chr>   <chr>           <dbl>         <dbl>            <dbl>
 1 Adelie  Torge…           40.3          18                195
 2 Adelie  Torge…           42            20.2              190
 3 Adelie  Torge…           41.1          17.6              182
 4 Adelie  Torge…           42.5          20.7              197
 5 Adelie  Torge…           46            21.5              194
 6 Adelie  Biscoe           40.6          18.6              183
 7 Adelie  Biscoe           40.5          17.9              187
 8 Adelie  Biscoe           40.5          18.9              180
 9 Adelie  Dream            40.9          18.9              184
10 Adelie  Dream            42.2          18.5              180
# … with 41 more rows, and 3 more variables: body_mass_g <dbl>,
#   sex <chr>, year <dbl>
…
