psychRstats: Learning Statistics for Psychology in R: Refreshing and Reviewing (Lab 05) Exercises, Completed
…
How do you select the third column of the data frame?

# all of these work to do this:
friends %>% select(3)

# A tibble: 84 x 1
   whentook           
   <dttm>             
 1 2020-08-27 13:05:27
 2 2020-08-27 14:58:31
 3 2020-08-27 15:06:45
 4 2020-08-27 15:26:38
 5 2020-08-28 09:22:43
 6 2020-08-28 11:24:18
 7 2020-08-28 13:38:29
 8 2020-08-28 22:13:56
 9 2020-08-28 22:15:18
10 2020-08-28 22:17:37
#  with 74 more rows

friends[,3]

# A tibble: 84 x 1
   whentook           
   <dttm>             
 1 2020-08-27 13:05:27
 2 2020-08-27 14:58:31
 3 2020-08-27 15:06:45
 4 2020-08-27 15:26:38
 5 2020-08-28 09:22:43
 6 2020-08-28 11:24:18
 7 2020-08-28 13:38:29
 8 2020-08-28 22:13:56
 9 2020-08-28 22:15:18
10 2020-08-28 22:17:37
#  with 74 more rows
…
friends %>% select(whentook)

# A tibble: 84 x 1
   whentook           
   <dttm>             
 1 2020-08-27 13:05:27
 2 2020-08-27 14:58:31
 3 2020-08-27 15:06:45
 4 2020-08-27 15:26:38
 5 2020-08-28 09:22:43
 6 2020-08-28 11:24:18
 7 2020-08-28 13:38:29
 8 2020-08-28 22:13:56
 9 2020-08-28 22:15:18
10 2020-08-28 22:17:37
#  with 74 more rows

Use the filter() function to filter out people with only one sibling listed in the column called siblings (i.e., remove people who have only one sibling). (But people with zero siblings should be included.) Said another way: you want everyone with 0 siblings or more than one, but not one sibling.

If youre not sure how to say not in R: not is an exclamation point, as it is in many other programming languages. Thus, writing != is like saying not equivalent. If youre wanting to instead use or, thats the pipe, |  as weve used last lab. e.g., try running the code 2+2 == 4 | 2+2 == 5 in your console. While only the former is TRUE, the or pipe | says "well, one of these is trueand will read TRUE.

Note: Ive seen a few people use <> in their writing. This is totally fine as a note for yourself, but does not mean not in R.

friends %>% filter(siblings != 1)

# A tibble: 49 x 32
   duration finished whentook            DistributionCha socialmedia
      <dbl>    <dbl> <dttm>              <chr>                  <dbl>
 1      332        1 2020-08-27 14:58:31 anonymous                 12
 2      399        1 2020-08-27 15:06:45 anonymous                  1
 3      139        1 2020-08-28 13:38:29 anonymous                  1
 4      271        0 2020-08-28 22:15:18 anonymous                 12
 5      290        1 2020-08-29 20:01:56 anonymous                  1
 6      241        1 2020-08-29 20:05:41 anonymous                  1
 7       18        0 2020-08-30 19:54:52 anonymous                 12
 8      323        1 2020-08-30 20:22:43 anonymous                  1
 9      405        1 2020-08-30 20:24:22 anonymous                  1
10      261        1 2020-08-30 20:30:28 anonymous                  1
#  with 39 more rows, and 27 more variables: gender <chr>,
#   siblings <dbl>, smed.hrs <dbl>, gram.followers <dbl>,
#   fbfriends <dbl>, tvhours <dbl>, haircolor <dbl>,
#   belief.in.god <dbl>, liveoncampus <dbl>, numclasses <dbl>,
#   numclassesremote <dbl>, eatmeat <dbl>, operas <dbl>,
#   cigarettes <dbl>, like.science <dbl>, harrypotter <dbl>,
#   registeredtovote <dbl>, votefor <dbl>, expectedoutcome_1 <dbl>,
#   expectedoutcome_2 <dbl>, expectedoutcome_3 <dbl>,
#   expectedoutcome_4 <dbl>, majordiv <dbl>, hrs.sleep <dbl>,
#   height.unvalidated <dbl>, shootingdrills <dbl>, handedness <dbl>

# or
friends %>% filter(siblings < 1 | siblings > 1) # remember the | means OR

# A tibble: 49 x 32
   duration finished whentook            DistributionCha socialmedia
      <dbl>    <dbl> <dttm>              <chr>                  <dbl>
 1      332        1 2020-08-27 14:58:31 anonymous                 12
 2      399        1 2020-08-27 15:06:45 anonymous                  1
 3      139        1 2020-08-28 13:38:29 anonymous                  1
 4      271        0 2020-08-28 22:15:18 anonymous                 12
 5      290        1 2020-08-29 20:01:56 anonymous                  1
 6      241        1 2020-08-29 20:05:41 anonymous                  1
 7       18        0 2020-08-30 19:54:52 anonymous                 12
 8      323        1 2020-08-30 20:22:43 anonymous                  1
 9      405        1 2020-08-30 20:24:22 anonymous                  1
10      261        1 2020-08-30 20:30:28 anonymous                  1
#  with 39 more rows, and 27 more variables: gender <chr>,
#   siblings <dbl>, smed.hrs <dbl>, gram.followers <dbl>,
#   fbfriends <dbl>, tvhours <dbl>, haircolor <dbl>,
#   belief.in.god <dbl>, liveoncampus <dbl>, numclasses <dbl>,
#   numclassesremote <dbl>, eatmeat <dbl>, operas <dbl>,
#   cigarettes <dbl>, like.science <dbl>, harrypotter <dbl>,
#   registeredtovote <dbl>, votefor <dbl>, expectedoutcome_1 <dbl>,
#   expectedoutcome_2 <dbl>, expectedoutcome_3 <dbl>,
#   expectedoutcome_4 <dbl>, majordiv <dbl>, hrs.sleep <dbl>,
…
